<?xml version="1.0" encoding="UTF-8" standalone="no"?>
<svg
   xmlns:dc="http://purl.org/dc/elements/1.1/"
   xmlns:cc="http://creativecommons.org/ns#"
   xmlns:rdf="http://www.w3.org/1999/02/22-rdf-syntax-ns#"
   xmlns:svg="http://www.w3.org/2000/svg"
   xmlns="http://www.w3.org/2000/svg"
   xmlns:sodipodi="http://sodipodi.sourceforge.net/DTD/sodipodi-0.dtd"
   xmlns:inkscape="http://www.inkscape.org/namespaces/inkscape"
   version="1.1"
   x="0px"
   y="0px"
   viewBox="0 0 52 65"
   style="enable-background:new 0 0 52 52;"
   xml:space="preserve"
   id="svg22"
   sodipodi:docname="pad.svg"
   inkscape:version="0.92.3 (2405546, 2018-03-11)"><metadata
     id="metadata28"><rdf:RDF><cc:Work
         rdf:about=""><dc:format>image/svg+xml</dc:format><dc:type
           rdf:resource="http://purl.org/dc/dcmitype/StillImage" /></cc:Work></rdf:RDF></metadata><defs
     id="defs26" /><sodipodi:namedview
     pagecolor="#ffffff"
     bordercolor="#666666"
     borderopacity="1"
     objecttolerance="10"
     gridtolerance="10"
     guidetolerance="10"
     inkscape:pageopacity="0"
     inkscape:pageshadow="2"
     inkscape:window-width="640"
     inkscape:window-height="480"
     id="namedview24"
     showgrid="false"
     inkscape:zoom="3.6307692"
     inkscape:cx="26"
     inkscape:cy="32.5"
     inkscape:window-x="0"
     inkscape:window-y="0"
     inkscape:window-maximized="0"
     inkscape:current-layer="svg22" /><style
     type="text/css"
     id="style2">
	.st0{stroke:#000000;stroke-width:2;stroke-miterlimit:10;}
</style><g
     id="g16"><path
       d="M43,3L43,3L9,3v0H8v47h36V3H43z M29,37H14v-2h15V37z M38.8,31H14v-2h24.8V31z M38.8,25H14v-2h24.8V25z M38.8,19H14v-2h24.8   V19z M38.8,13H14v-2h24.8V13z"
       id="path4" /><rect
       x="13"
       y="2"
       width="2"
       height="4"
       id="rect6" /><rect
       x="19"
       y="2"
       width="2"
       height="4"
       id="rect8" /><rect
       x="25"
       y="2"
       width="2"
       height="4"
       id="rect10" /><rect
       x="31"
       y="2"
       width="2"
       height="4"
       id="rect12" /><rect
       x="37"
       y="2"
       width="2"
       height="4"
       id="rect14" /></g></svg>