<?xml version="1.0" encoding="UTF-8" standalone="no"?>
<svg
   xmlns:dc="http://purl.org/dc/elements/1.1/"
   xmlns:cc="http://creativecommons.org/ns#"
   xmlns:rdf="http://www.w3.org/1999/02/22-rdf-syntax-ns#"
   xmlns:svg="http://www.w3.org/2000/svg"
   xmlns="http://www.w3.org/2000/svg"
   xmlns:sodipodi="http://sodipodi.sourceforge.net/DTD/sodipodi-0.dtd"
   xmlns:inkscape="http://www.inkscape.org/namespaces/inkscape"
   width="700pt"
   height="700pt"
   version="1.1"
   viewBox="0 0 700 700"
   id="svg34"
   sodipodi:docname="proxy.svg"
   inkscape:version="0.92.3 (2405546, 2018-03-11)">
  <metadata
     id="metadata40">
    <rdf:RDF>
      <cc:Work
         rdf:about="">
        <dc:format>image/svg+xml</dc:format>
        <dc:type
           rdf:resource="http://purl.org/dc/dcmitype/StillImage" />
      </cc:Work>
    </rdf:RDF>
  </metadata>
  <defs
     id="defs38" />
  <sodipodi:namedview
     pagecolor="#ffffff"
     bordercolor="#666666"
     borderopacity="1"
     objecttolerance="10"
     gridtolerance="10"
     guidetolerance="10"
     inkscape:pageopacity="0"
     inkscape:pageshadow="2"
     inkscape:window-width="1481"
     inkscape:window-height="785"
     id="namedview36"
     showgrid="false"
     inkscape:zoom="0.25285714"
     inkscape:cx="466.66667"
     inkscape:cy="466.66667"
     inkscape:window-x="0"
     inkscape:window-y="0"
     inkscape:window-maximized="0"
     inkscape:current-layer="svg34" />
  <g
     id="g32"
     transform="translate(0,73.5)">
    <path
       d="m 402.5,385 c 0,-10.906 0.33594,-21.812 0.96094,-32.559 -44.082,4.3438 -73.918,13.801 -87.941,22.375 -0.25,3.375 -0.51953,6.7461 -0.51953,10.184 0,3.4379 0.26953,6.8086 0.51562,10.184 14.027,8.5781 43.859,18.031 87.941,22.375 C 402.83594,406.813 402.5,395.907 402.5,385 Z"
       id="path2"
       inkscape:connector-curvature="0" />
    <path
       d="m 594.48,374.82 c -14.027,-8.5781 -43.859,-18.031 -87.941,-22.375 0.62109,10.746 0.95703,21.652 0.95703,32.559 0,10.907 -0.33594,21.812 -0.96094,32.559 44.082,-4.3438 73.918,-13.801 87.941,-22.375 0.25,-3.375 0.51953,-6.7461 0.51953,-10.184 0,-3.4379 -0.26953,-6.8086 -0.51562,-10.184 z"
       id="path4"
       inkscape:connector-curvature="0" />
    <path
       d="m 421.02,351.02 c -0.65625,10.633 -1.0156,21.969 -1.0156,33.984 0,12.015 0.35938,23.352 1.0156,33.984 10.633,0.65625 21.969,1.0156 33.984,1.0156 12.015,0 23.352,-0.35938 33.984,-1.0156 0.65625,-10.633 1.0156,-21.969 1.0156,-33.984 0,-12.015 -0.35938,-23.352 -1.0156,-33.984 -10.633,-0.65625 -21.969,-1.0156 -33.984,-1.0156 -12.015,0 -23.352,0.35938 -33.984,1.0156 z"
       id="path6"
       inkscape:connector-curvature="0" />
    <path
       d="m 455,437.5 c -10.906,0 -21.812,-0.33594 -32.559,-0.96094 4.3438,44.082 13.801,73.918 22.375,87.941 3.375,0.25 6.7461,0.51953 10.184,0.51953 3.4379,0 6.8086,-0.26953 10.184,-0.51562 8.5781,-14.027 18.031,-43.859 22.375,-87.941 C 476.813,437.16406 465.907,437.5 455,437.5 Z"
       id="path8"
       inkscape:connector-curvature="0" />
    <path
       d="m 318.66,416.32 c 11.961,52.059 52.965,93.062 105.02,105.02 -9.4375,-21.379 -15.754,-52.27 -18.875,-86.148 -33.879,-3.1211 -64.77,-9.4375 -86.148,-18.875 z"
       id="path10"
       inkscape:connector-curvature="0" />
    <path
       d="m 486.32,521.34 c 52.059,-11.961 93.062,-52.965 105.02,-105.02 -21.379,9.4375 -52.27,15.754 -86.148,18.875 -3.1211,33.879 -9.4375,64.77 -18.875,86.148 z"
       id="path12"
       inkscape:connector-curvature="0" />
    <path
       d="m 591.34,353.68 c -11.961,-52.059 -52.965,-93.062 -105.02,-105.02 9.4375,21.379 15.754,52.27 18.875,86.148 33.879,3.1211 64.77,9.4375 86.148,18.875 z"
       id="path14"
       inkscape:connector-curvature="0" />
    <path
       d="m 192.5,175 c 0,-10.906 0.33594,-21.812 0.96094,-32.559 -44.086,4.3438 -73.918,13.797 -87.945,22.375 -0.24609,3.375 -0.51562,6.7461 -0.51562,10.184 0,3.4379 0.26953,6.8086 0.51562,10.184 14.027,8.5781 43.859,18.031 87.941,22.375 -0.62109,-10.746 -0.95703,-21.652 -0.95703,-32.559 z"
       id="path16"
       inkscape:connector-curvature="0" />
    <path
       d="m 245,122.5 c 10.906,0 21.812,0.33594 32.559,0.96094 -4.3438,-44.082 -13.801,-73.918 -22.375,-87.941 -3.375,-0.25 -6.7461,-0.51953 -10.184,-0.51953 -3.4379,0 -6.8086,0.26953 -10.184,0.51562 -8.5781,14.027 -18.031,43.859 -22.375,87.945 10.746,-0.625 21.652,-0.96094 32.559,-0.96094 z"
       id="path18"
       inkscape:connector-curvature="0" />
    <path
       d="m 297.5,175 c 0,10.906 -0.33594,21.812 -0.96094,32.559 44.082,-4.3438 73.918,-13.801 87.941,-22.375 0.25,-3.375 0.51953,-6.7461 0.51953,-10.184 0,-3.4379 -0.26953,-6.8086 -0.51562,-10.184 -14.027,-8.5781 -43.859,-18.031 -87.941,-22.375 C 297.16406,153.187 297.5,164.093 297.5,175 Z"
       id="path20"
       inkscape:connector-curvature="0" />
    <path
       d="m 211.02,141.02 c -0.65625,10.633 -1.0156,21.969 -1.0156,33.984 0,12.015 0.35938,23.352 1.0156,33.984 10.633,0.65625 21.969,1.0156 33.984,1.0156 12.015,0 23.352,-0.35938 33.984,-1.0156 0.65625,-10.633 1.0156,-21.969 1.0156,-33.984 0,-12.015 -0.35938,-23.352 -1.0156,-33.984 -10.633,-0.65625 -21.969,-1.0156 -33.984,-1.0156 -12.015,0 -23.352,0.35938 -33.984,1.0156 z"
       id="path22"
       inkscape:connector-curvature="0" />
    <path
       d="m 108.66,206.32 c 11.961,52.059 52.965,93.062 105.02,105.02 -9.4375,-21.379 -15.754,-52.27 -18.875,-86.148 -33.879,-3.1211 -64.77,-9.4375 -86.148,-18.875 z"
       id="path24"
       inkscape:connector-curvature="0" />
    <path
       d="m 213.68,38.66 c -52.062,11.961 -93.062,52.961 -105.02,105.02 21.379,-9.4375 52.27,-15.754 86.148,-18.875 3.1211,-33.879 9.4375,-64.77 18.875,-86.148 z"
       id="path26"
       inkscape:connector-curvature="0" />
    <path
       d="M 381.34,143.68 C 369.379,91.621 328.375,50.618 276.32,38.66 c 9.4375,21.379 15.754,52.27 18.875,86.148 33.879,3.1211 64.77,9.4375 86.148,18.875 z"
       id="path28"
       inkscape:connector-curvature="0" />
    <path
       d="m 472.5,297.5 v -35 c 0,-19.332 -15.672,-35 -35,-35 h -175 c -19.328,0 -35,15.668 -35,35 v 35 c 0,19.328 15.672,35 35,35 h 175 c 19.328,0 35,-15.672 35,-35 z m -209.96,0 c -9.6406,0 -17.543,-7.8281 -17.543,-17.5 0,-9.6719 7.7305,-17.5 17.371,-17.5 h 0.60547 c 9.6484,0 17.023,7.8281 17.023,17.5 0,9.6719 -7.8086,17.5 -17.457,17.5 z m 52.5,0 c -9.6406,0 -17.543,-7.8281 -17.543,-17.5 0,-9.6719 7.7305,-17.5 17.371,-17.5 h 0.60547 c 9.6484,0 17.023,7.8281 17.023,17.5 0,9.6719 -7.8086,17.5 -17.457,17.5 z M 349.997,280 c 0,-9.6719 7.8359,-17.5 17.5,-17.5 h 70 c 9.6641,0 17.5,7.8281 17.5,17.5 0,9.6719 -7.8359,17.5 -17.5,17.5 h -70 c -9.6641,0 -17.5,-7.8281 -17.5,-17.5 z"
       id="path30"
       inkscape:connector-curvature="0" />
  </g>
</svg>
